…
### Accessing Data

The primary function to access data from the UDM API is `udmpullr()`.
Suppose you want to access the daily dairy product prices from the CME
spot market. Within the UDM API, these data are contained within a table
named “UDM_Report_CME_Dairy_Spot_Market_Overview_Daily”. This can be
passed to `udmpullr()` as the first argument, `table_name`:

``` r
udmpullr(table_name = "UDM_Report_CME_Dairy_Spot_Market_Overview_Daily")
#> # A tibble: 6,698 × 50
#>    Report_Period        LastModified            Active CME_Nonfat_Dry_Milk_Gra…¹
#>    <chr>                <chr>                   <lgl>                      <dbl>
#>  1 1998-09-01T00:00:00Z 2019-03-05T21:06:46.54Z TRUE                        1.1 
#>  2 1998-09-02T00:00:00Z 2019-03-05T21:06:46.54Z TRUE                        1.12
#>  3 1998-09-03T00:00:00Z 2019-03-05T21:06:46.54Z TRUE                        1.13
#>  4 1998-09-09T00:00:00Z 2019-03-05T21:06:46.54Z TRUE                       NA   
#>  5 1998-09-10T00:00:00Z 2019-03-05T21:06:46.54Z TRUE                       NA   
#>  6 1998-09-11T00:00:00Z 2019-03-05T21:06:46.54Z TRUE                        1.16
#>  7 1998-09-16T00:00:00Z 2019-03-05T21:06:46.54Z TRUE                        1.16
#>  8 1998-09-17T00:00:00Z 2019-03-05T21:06:46.54Z TRUE                        1.16
#>  9 1998-09-18T00:00:00Z 2019-03-05T21:06:46.54Z TRUE                        1.16
#> 10 1998-09-21T00:00:00Z 2019-03-05T21:06:46.54Z TRUE                        1.16
#> # ℹ 6,688 more rows
#> # ℹ abbreviated name: ¹​CME_Nonfat_Dry_Milk_Grade_A_Spot_Price
#> # ℹ 46 more variables: UDM_CME_Nonfat_Dry_Milk_Grade_A_Spot_Quantity <int>,
#> #   UDM_CME_Nonfat_Dry_Milk_Grade_A_Spot_Transaction_Count <int>,
#> #   CME_Butter_Grade_AA_Spot_Price <dbl>,
#> #   UDM_CME_Butter_Grade_AA_Spot_Quantity <int>,
#> #   UDM_CME_Butter_Grade_AA_Spot_Transaction_Count <int>, …
```
…
The UDM API has a limit of 10,000 rows of data in any single response.
This is an issue for certain tables, such as the daily futures panel,
which have far more than 10,000 rows of data. Therefore, it is necessary
to filter the data to some extent before pulling from the UDM API. The
`start_date` and `end_date` arguments are one option for doing so, but
`udmpullr()` also allows specific products to be specified (for tables
where that is applicable). For example, the daily futures panel includes
a variable called `Product_Name`, and `udmpullr()` allows a specific
product to be specified via the `product_name` argument:

``` r
udmpullr("UDM_Report_Futures_Prices_Daily_Panel",
         product_name = "CME Class III Milk Futures",
         start_date = Sys.Date() - lubridate::days(7))
#> # A tibble: 115 × 12
#>    Product_Name  Contract_Month Report_Period Nearby_Index Open_Price High_Price
#>    <chr>         <chr>          <chr>                <int>      <dbl>      <dbl>
#>  1 CME Class II… 2026-04-01T00… 2025-06-23T0…           11       18.0       18.0
#>  2 CME Class II… 2026-03-01T00… 2025-06-23T0…           10       18.0       18.1
#>  3 CME Class II… 2026-01-01T00… 2025-06-23T0…            8       18.1       18.1
#>  4 CME Class II… 2027-03-01T00… 2025-06-23T0…           22       17         17  
#>  5 CME Class II… 2026-12-01T00… 2025-06-23T0…           19       18.4       18.4
#>  6 CME Class II… 2026-02-01T00… 2025-06-23T0…            9       18         18.0
#>  7 CME Class II… 2026-09-01T00… 2025-06-23T0…           16       18.4       18.4
#>  8 CME Class II… 2025-12-01T00… 2025-06-23T0…            7       18.4       18.4
#>  9 CME Class II… 2026-10-01T00… 2025-06-23T0…           17       18.4       18.5
#> 10 CME Class II… 2026-05-01T00… 2025-06-23T0…           12       18.1       18.1
#> # ℹ 105 more rows
#> # ℹ 6 more variables: Low_Price <dbl>, Close_Price <dbl>, Volume <int>,
#> #   Open_Interest <int>, LastModified <chr>, Active <int>
```
…
``` r
list("CME Class III Milk Futures",
     "CME Class IV Milk Futures",
     "CME Cash-Settled Butter Futures",
     "CME Non-Fat Dry Milk Futures",
     "CME Dry Whey Futures",
     "CME Cash-Settled Cheese Futures") %>%
  purrr::map(\(x) udmpullr("UDM_Report_Futures_Prices_Daily_Panel",
                           product_name = x,
                           start_date = Sys.Date() - lubridate::days(7),
                           end_date = Sys.Date())) %>%
  dplyr::bind_rows()
#> # A tibble: 676 × 12
#>    Product_Name  Contract_Month Report_Period Nearby_Index Open_Price High_Price
#>    <chr>         <chr>          <chr>                <int>      <dbl>      <dbl>
#>  1 CME Class II… 2026-04-01T00… 2025-06-23T0…           11       18.0       18.0
#>  2 CME Class II… 2026-03-01T00… 2025-06-23T0…           10       18.0       18.1
#>  3 CME Class II… 2026-01-01T00… 2025-06-23T0…            8       18.1       18.1
#>  4 CME Class II… 2027-03-01T00… 2025-06-23T0…           22       17         17  
#>  5 CME Class II… 2026-12-01T00… 2025-06-23T0…           19       18.4       18.4
#>  6 CME Class II… 2026-02-01T00… 2025-06-23T0…            9       18         18.0
#>  7 CME Class II… 2026-09-01T00… 2025-06-23T0…           16       18.4       18.4
#>  8 CME Class II… 2025-12-01T00… 2025-06-23T0…            7       18.4       18.4
#>  9 CME Class II… 2026-10-01T00… 2025-06-23T0…           17       18.4       18.5
#> 10 CME Class II… 2026-05-01T00… 2025-06-23T0…           12       18.1       18.1
#> # ℹ 666 more rows
#> # ℹ 6 more variables: Low_Price <dbl>, Close_Price <dbl>, Volume <int>,
#> #   Open_Interest <int>, LastModified <chr>, Active <int>
```
